categoryn_fk


SELECT count(*) 
FROM content_news 
WHERE date > current_date - interval '2' day;


SELECT * FROM content_news_categorys
WHERE news_id IN ('b47adbef-73d0-4569-a57e-7ef86753082c','3b30149c-e0b8-4122-8a92-14cdf61eae51','71ad86ef-34ba-4cb2-a0c4-4ddea30d3d78','0de8de0c-62a9-413e-996e-33debfaaac4a','7938ed8d-be48-4dd5-a120-eca1f258d317','0ed7ac29-82b8-481b-8e17-2727a29900a9','628a70ef-c623-46b2-b7ac-8b2ea7e1e692','cfa05c16-9c1b-4943-855e-5537d020aac7','4a1a88b4-5b7f-42a5-b1a8-2008def13ac4','e8790c66-640d-49ec-b41b-c005cbb8c1ab','af5e7aaf-1813-41e7-99a4-d62120d0982a','c7e87e64-cb32-40e7-ac33-9c203a9ace5c','fa6e08e4-4770-4229-9afa-29cb9468a1ef','170a6859-0117-49f4-8b81-518e294b9c4c','fd6f95b6-6f25-4fdf-b5de-aed9d62be687','e08cabb9-94f4-424f-a43b-1337e2ed60a2','71c48841-9150-4814-a830-b5c5fd25de98','b10c6c94-c8f3-4faf-95aa-39b199caae88','423bf0a5-eb92-4ac5-8215-bbf06a979688','5809dd9d-e663-4dde-a12a-e22cd57c6179','796eab91-0e01-47da-8854-26a1ae714e81','9980a0b2-776f-4791-bfa4-dae84b7d4d38','a5d3076e-0e07-4633-8c28-9a5640f86c67','51aa586d-d643-4c3a-900c-5790289abaa8','8992d6af-85e6-4b6e-ab47-7a99f4e1cb31','a94ddfe0-65ca-4d2e-a236-b81561f552fe','3cdfe34c-2828-4ea4-bdd9-b3f46fc97276','85b6c46c-888a-4fff-803e-57ffba77d169','7ab1e8f9-523a-4426-81b8-e3e09193bf41','51375b4f-b588-487f-a797-967ed9ddefc6','0471229e-d226-47ae-a726-1d5a5028b27d','8560a93b-bd7c-4907-a70e-da3065dafaa5','153a625d-cd2a-430f-b35f-f735ccf31671','c8e1e01a-f525-42ce-8f5d-8750831eef0f','2d441a4f-e0c2-4ab1-8881-31036044050a','5f00da8f-13db-4d19-af71-406345fabff2','6b6a97d8-771f-40f9-8769-480b6300a49f','28765236-579f-4cb8-b5e1-77899c27890c','5217bde1-8bdf-494a-8c3b-e09409350483','3eaa21c3-dea6-4373-9435-6c052436173f','7e445059-211a-438d-b8ba-e79f5e12ea69','e9bf1744-96e9-4c74-9620-299a1053414f','10063ac3-928b-498e-b14b-38a032d03621','b7acd6f4-ebae-4b86-9716-e564a74eab8d','766252e5-8be6-4d65-83a5-7c5a2433b008','41e7c9fd-1f61-4f66-b615-9a7c139755d2','16ebf63e-0990-48bb-90aa-add22eebc9e2','8843dfbe-8db9-466a-8da8-a2fbf7dda464','3254a6ea-b71a-4d5f-9ef1-1d700b2941d2','084a553f-4c80-477b-9e51-78f8b01f16e6','4839dca2-b7f5-42a4-bfbb-57ba147295b7','dc038f66-daf5-4df5-ba18-928be1be76f8','9a07a36e-7a66-4da2-aff9-5f58695340fe','28ab38ea-924a-437a-b06c-d4e753a00a23','2146ed6f-1168-4485-a94c-e6f75b154047','dbef7432-44c8-4316-9f9f-110bc7795c34','cfb8fe24-31d5-437e-a6bd-eeaa24846cdb','f12ee74f-9db8-45e2-80c0-e2d1f8b3e661','3357d766-79bc-4ecf-bd03-0c8604acabb7','e8177a64-f5e0-45b5-a42e-855e78935570','d6772b61-2e51-4bae-802b-8569eeb2aa1c','f482cd5b-3d77-43d1-97e6-5d6d916c0a0d','34bd3f3d-6dcb-4367-a513-028d7c517718','32bd7a88-9218-4de9-96da-419a038514ad','63c5c2e3-7141-4916-a475-ceaa4643b190','88f70d6e-e142-499c-b30f-56d61060e8c2','e45b32aa-c050-4d8b-9922-003303016fa9','4d642b42-8bda-4fa0-b42c-eec679606f8b','c1dd86bd-e887-4017-bcc0-2917e2a77265','0cb0362b-c23a-44aa-8a30-21f729c74d1b','c4df9d4d-b307-4fa1-b650-ce78cbe6b3db','759028ef-919e-480b-888d-89bf3a130dfc','0dcb33f0-ea72-497e-af48-810c2bcd37d4','c9135e70-bc23-4051-b358-068daefe2c62','81d034dc-260b-422d-adcf-13a491e87b7e','18cf17de-1cf9-4aa5-8cfe-93ded0c1ea66')






SELECT * FROM news
WHERE u_id IN ('b47adbef-73d0-4569-a57e-7ef86753082c','3b30149c-e0b8-4122-8a92-14cdf61eae51','71ad86ef-34ba-4cb2-a0c4-4ddea30d3d78','0de8de0c-62a9-413e-996e-33debfaaac4a','7938ed8d-be48-4dd5-a120-eca1f258d317','0ed7ac29-82b8-481b-8e17-2727a29900a9','628a70ef-c623-46b2-b7ac-8b2ea7e1e692','cfa05c16-9c1b-4943-855e-5537d020aac7','4a1a88b4-5b7f-42a5-b1a8-2008def13ac4','e8790c66-640d-49ec-b41b-c005cbb8c1ab','af5e7aaf-1813-41e7-99a4-d62120d0982a','c7e87e64-cb32-40e7-ac33-9c203a9ace5c','fa6e08e4-4770-4229-9afa-29cb9468a1ef','170a6859-0117-49f4-8b81-518e294b9c4c','fd6f95b6-6f25-4fdf-b5de-aed9d62be687','e08cabb9-94f4-424f-a43b-1337e2ed60a2','71c48841-9150-4814-a830-b5c5fd25de98','b10c6c94-c8f3-4faf-95aa-39b199caae88','423bf0a5-eb92-4ac5-8215-bbf06a979688','5809dd9d-e663-4dde-a12a-e22cd57c6179','796eab91-0e01-47da-8854-26a1ae714e81','9980a0b2-776f-4791-bfa4-dae84b7d4d38','a5d3076e-0e07-4633-8c28-9a5640f86c67','51aa586d-d643-4c3a-900c-5790289abaa8','8992d6af-85e6-4b6e-ab47-7a99f4e1cb31','a94ddfe0-65ca-4d2e-a236-b81561f552fe','3cdfe34c-2828-4ea4-bdd9-b3f46fc97276','85b6c46c-888a-4fff-803e-57ffba77d169','7ab1e8f9-523a-4426-81b8-e3e09193bf41','51375b4f-b588-487f-a797-967ed9ddefc6','0471229e-d226-47ae-a726-1d5a5028b27d','8560a93b-bd7c-4907-a70e-da3065dafaa5','153a625d-cd2a-430f-b35f-f735ccf31671','c8e1e01a-f525-42ce-8f5d-8750831eef0f','2d441a4f-e0c2-4ab1-8881-31036044050a','5f00da8f-13db-4d19-af71-406345fabff2','6b6a97d8-771f-40f9-8769-480b6300a49f','28765236-579f-4cb8-b5e1-77899c27890c','5217bde1-8bdf-494a-8c3b-e09409350483','3eaa21c3-dea6-4373-9435-6c052436173f','7e445059-211a-438d-b8ba-e79f5e12ea69','e9bf1744-96e9-4c74-9620-299a1053414f','10063ac3-928b-498e-b14b-38a032d03621','b7acd6f4-ebae-4b86-9716-e564a74eab8d','766252e5-8be6-4d65-83a5-7c5a2433b008','41e7c9fd-1f61-4f66-b615-9a7c139755d2','16ebf63e-0990-48bb-90aa-add22eebc9e2','8843dfbe-8db9-466a-8da8-a2fbf7dda464','3254a6ea-b71a-4d5f-9ef1-1d700b2941d2','084a553f-4c80-477b-9e51-78f8b01f16e6','4839dca2-b7f5-42a4-bfbb-57ba147295b7','dc038f66-daf5-4df5-ba18-928be1be76f8','9a07a36e-7a66-4da2-aff9-5f58695340fe','28ab38ea-924a-437a-b06c-d4e753a00a23','2146ed6f-1168-4485-a94c-e6f75b154047','dbef7432-44c8-4316-9f9f-110bc7795c34','cfb8fe24-31d5-437e-a6bd-eeaa24846cdb','f12ee74f-9db8-45e2-80c0-e2d1f8b3e661','3357d766-79bc-4ecf-bd03-0c8604acabb7','e8177a64-f5e0-45b5-a42e-855e78935570','d6772b61-2e51-4bae-802b-8569eeb2aa1c','f482cd5b-3d77-43d1-97e6-5d6d916c0a0d','34bd3f3d-6dcb-4367-a513-028d7c517718','32bd7a88-9218-4de9-96da-419a038514ad','63c5c2e3-7141-4916-a475-ceaa4643b190','88f70d6e-e142-499c-b30f-56d61060e8c2','e45b32aa-c050-4d8b-9922-003303016fa9','4d642b42-8bda-4fa0-b42c-eec679606f8b','c1dd86bd-e887-4017-bcc0-2917e2a77265','0cb0362b-c23a-44aa-8a30-21f729c74d1b','c4df9d4d-b307-4fa1-b650-ce78cbe6b3db','759028ef-919e-480b-888d-89bf3a130dfc','0dcb33f0-ea72-497e-af48-810c2bcd37d4','c9135e70-bc23-4051-b358-068daefe2c62','81d034dc-260b-422d-adcf-13a491e87b7e','18cf17de-1cf9-4aa5-8cfe-93ded0c1ea66')